exit_name,exit_id,hwy_name,hwy_id
San Pablo Avenue,0,4 East,1
80 West,1,4 East,1
80 East,2,4 East,1
Bayberry Avenue,3,4 East,1
Sycamore Avenue,4,4 East,1
Cummings Skyway,5,4 East,1
Mcewen Road,6,4 East,1
Alhambra Avenue,7,4 East,1
Center Avenue,8,4 East,1
Morello Avenue,9,4 East,1
Pacheco Boulevard,10,4 East,1
680 South,11,4 East,1
680 North,12,4 East,1
Arnold Industrial Place,13,4 East,1
242 South,14,4 East,1
242 North,15,4 East,1
Port Chicago Highway,16,4 East,1
Willow Pass Road,17,4 East,1
Bailey Road,18,4 East,1
Railroad Avenue,19,4 East,1
Loveridge Road,20,4 East,1
Somersville Road,21,4 East,1
Contra Loma Boulevard,22,4 East,1
G Street,23,4 East,1
Lone Tree Way,24,4 East,1
Hillcrest Avenue,25,4 East,1
160 East,26,4 East,1
Laurel Road,27,4 East,1
Lone Tree Way Bypass,28,4 East,1
Sand Creek Road,29,4 East,1
San Jose Avenue,30,4 East,1
Balfour Road,31,4 East,1
Walnut Boulevard,32,4 East,1
Byron Highway,33,4 East,1
Cherry Hill Drive,34,4 East,1
San Joaquin County Line,35,4 West,2
Cherry Hill Drive,36,4 West,2
Byron Highway,37,4 West,2
Walnut Boulevard,38,4 West,2
Balfour Road,39,4 West,2
San Jose Avenue,40,4 West,2
Sand Creek Road,41,4 West,2
Lone Tree Way Bypass,42,4 West,2
Laurel Road,43,4 West,2
160 East,44,4 West,2
Hillcrest Avenue,45,4 West,2
A Street,46,4 West,2
G Street,47,4 West,2
L Street,48,4 West,2
Somersville Road,49,4 West,2
Loveridge Road,50,4 West,2
Railroad Avenue,51,4 West,2
Bailey Road,52,4 West,2
Willow Pass Road,53,4 West,2
Port Chicago Highway,54,4 West,2
242 South,55,4 West,2
242 North,56,4 West,2
Arnold Industrial Way,57,4 West,2
680 North,58,4 West,2
680 South,59,4 West,2
Pacheco Boulevard,60,4 West,2
Morello Avenue,61,4 West,2
Center Avenue,62,4 West,2
Alhambra Avenue,63,4 West,2
Mcewen Road,64,4 West,2
Cummings Skyway,65,4 West,2
Sycamore Avenue,66,4 West,2
Bayberry Avenue,67,4 West,2
80 East,68,4 West,2
80 West,69,4 West,2
580 West,70,13 North,3
Carson Street,71,13 North,3
Redwood Road,72,13 North,3
Lincoln Avenue,73,13 North,3
Park Boulevard,74,13 North,3
Moraga Avenue,75,13 North,3
Broadway Terrace,76,13 North,3
24 East,77,13 North,3
24 West,78,13 North,3
Caldecott Lane,79,13 North,3
Claremont Avenue,80,13 North,3
College Avenue,81,13 North,3
Telegraph Avenue,82,13 North,3
Shattuck Avenue,83,13 North,3
Adeline Street,84,13 North,3
Sacramento Street,85,13 North,3
San Pablo Avenue,86,13 North,3
80 East,87,13 South,4
San Pablo Avenue,88,13 South,4
Sacramento Street,89,13 South,4
Adeline Street,90,13 South,4
Shattuck Avenue,91,13 South,4
Telegraph Avenue,92,13 South,4
College Avenue,93,13 South,4
Claremont Avenue,94,13 South,4
Caldecott Lane,95,13 South,4
24 West-13 South Ramp,96,13 South,4
24 East,97,13 South,4
Broadway Terrace,98,13 South,4
Moraga Avenue,99,13 South,4
Park Boulevard,100,13 South,4
Lincoln Avenue,101,13 South,4
Redwood Road,102,13 South,4
Carson Street,103,13 South,4
1 South,104,17 North,5
1 North,105,17 North,5
Pasatiempo Drive,106,17 North,5
El Rancho Drive,107,17 North,5
Mt Hermon Road,108,17 North,5
Granite Creek Road,109,17 North,5
Santas Village Road,110,17 North,5
Crescent Drive,111,17 North,5
West Vine Hill Road,112,17 North,5
Jarvis Road,113,17 North,5
Laurel Road,114,17 North,5
Old Santa Cruz Highway,115,17 North,5
Summit Road,116,17 North,5
Madrone Drive,117,17 North,5
Idylwild Road,118,17 North,5
Hebard Road,119,17 North,5
Bear Creek Road,120,17 North,5
Alma Bridge Road,121,17 North,5
South Santa Cruz Avenue,122,17 North,5
Los Gatos Saratoga Road,123,17 North,5
Lark Avenue,124,17 North,5
85 South,125,17 North,5
85 North,126,17 North,5
San Tomas Exressway,127,17 North,5
East Hamilton Avenue,128,17 North,5
280 South,129,17 North,5
280 North,130,17 South,6
280 South,131,17 South,6
East Hamilton Avenue,132,17 South,6
San Tomas Exressway,133,17 South,6
85 North,134,17 South,6
85 South,135,17 South,6
Lark Avenue,136,17 South,6
Los Gatos Saratoga Road,137,17 South,6
South Santa Cruz Avenue,138,17 South,6
Alma Bridge Road,139,17 South,6
Black Road,140,17 South,6
Old Santa Cruz Highway,141,17 South,6
Bear Creek Road,142,17 South,6
Hebard Road,143,17 South,6
Brush Road,144,17 South,6
Madrone Drive,145,17 South,6
Summit Road,146,17 South,6
Glenwood Drive,147,17 South,6
Laurel Road,148,17 South,6
Glenwood Cutoff,149,17 South,6
Scotts Valley Drive,150,17 South,6
Granite Creek Road,151,17 South,6
Glen Canyon Road,152,17 South,6
Mt Hermon Road,153,17 South,6
La Madrona Drive,154,17 South,6
Pasatiempo Drive,155,17 South,6
1 North,156,17 South,6
980 East,157,24 East,7
580 East,158,24 East,7
580 West,159,24 East,7
580 East-West-24 East Ramp Merge,160,24 East,7
51st Street,161,24 East,7
Claremont Avenue,162,24 East,7
Keith Avenue,163,24 East,7
Broadway,164,24 East,7
24 East-13 South Ramp,165,24 East,7
13 North,166,24 East,7
13 North-24 East Ramp,167,24 East,7
Caldecott Tunnel,168,24 East,7
Fish Ranch Road,169,24 East,7
Gateway Boulevard,170,24 East,7
Camino Pablo,171,24 East,7
St Stephens Drive,172,24 East,7
Acalanes Road,173,24 East,7
Happy Valley Road,174,24 East,7
Pleasant Hill Road,175,24 East,7
680 North,176,24 West,8
Pleasant Hill Road,177,24 West,8
Happy Valley Road,178,24 West,8
Acalanes Road,179,24 West,8
St Stephens Drive,180,24 West,8
Camino Pablo,181,24 West,8
Gateway Boulevard,182,24 West,8
Fish Ranch Road,183,24 West,8
Caldecott Tunnel,184,24 West,8
Caldecott Lane,185,24 West,8
13 North,186,24 West,8
24 West-13 South Ramp,187,24 West,8
13 North-24 West Ramp,188,24 West,8
Broadway,189,24 West,8
Claremont Avenue,190,24 West,8
51st Street,191,24 West,8
580 West,192,24 West,8
580 East,193,24 West,8
101 North,194,37 East,9
Atherton Avenue,195,37 East,9
Lakeville Highway,196,37 East,9
121 East,197,37 East,9
Noble Road,198,37 East,9
Sears Point Road,199,37 East,9
Skaggs Island Road,200,37 East,9
Wilson Avenue,201,37 East,9
Sacramento Street,202,37 East,9
Sonoma Boulevard,203,37 East,9
Broadway,204,37 East,9
Mini Drive,205,37 East,9
Fairgrounds Drive,206,37 East,9
80 West,207,37 East,9
80 West,208,37 West,10
Fairgrounds Drive,209,37 West,10
Mini Drive,210,37 West,10
Broadway,211,37 West,10
Sonoma Boulevard,212,37 West,10
Sacramento Street,213,37 West,10
Wilson Avenue,214,37 West,10
Skaggs Island Road,215,37 West,10
Sears Point Road,216,37 West,10
Noble Road,217,37 West,10
121 East,218,37 West,10
Lakeville Highway,219,37 West,10
Atherton Avenue,220,37 West,10
101 North,221,80 East,11
101 South,222,80 East,11
7th Street,223,80 East,11
4th Street,224,80 East,11
Bay Bridge - West Span,225,80 East,11
Treasure Island Road,226,80 East,11
Bay Bridge - Cantilever Section,227,80 East,11
880 South,228,80 East,11
580 East,229,80 East,11
880 North,230,80 East,11
580 West-Macarthur Maze,231,80 East,11
Powell Street,232,80 East,11
Ashby Avenue,233,80 East,11
13 North-80 East Ramp,234,80 East,11
University Avenue,235,80 East,11
Gilman Street,236,80 East,11
Golden Gate Fields,237,80 East,11
Central Avenue,238,80 East,11
Carlson Boulevard,239,80 East,11
Potrero Avenue,240,80 East,11
Cutting Boulevard,241,80 East,11
Macdonald Avenue,242,80 East,11
Barrett Avenue,243,80 East,11
Solano Avenue,244,80 East,11
Mcbryde Avenue,245,80 East,11
San Pablo Dam Road,246,80 East,11
El Portal Drive,247,80 East,11
Hilltop Drive,248,80 East,11
Fitzgerald Drive,249,80 East,11
Appian Way,250,80 East,11
Pinole Valley Road,251,80 East,11
4 East,252,80 East,11
Willow Avenue,253,80 East,11
Cummings Skyway,254,80 East,11
San Pablo Avenue,255,80 East,11
Carquinez Bridge,256,80 East,11
Carquinez Bridge - Toll Plaza,257,80 East,11
Sonoma Boulevard,258,80 East,11
Magazine Street,259,80 East,11
780 East,260,80 East,11
780 West,261,80 East,11
Georgia Street,262,80 East,11
Springs Road,263,80 East,11
Tennessee Street,264,80 East,11
Redwood Parkway,265,80 East,11
Marine World Parkway,266,80 East,11
Columbus Parkway,267,80 East,11
37 East-80 East Ramp,268,80 East,11
American Canyon Road,269,80 East,11
12 West,270,80 East,11
680 South,271,80 East,11
680 North,272,80 East,11
Suisun Valley Road,273,80 East,11
12 East,274,80 East,11
Abernathy Road,275,80 East,11
Rockville Road,276,80 East,11
Travis Boulevard,277,80 East,11
Air Base Parkway,278,80 East,11
North Texas Street,279,80 East,11
Lagoon Valley Road,280,80 East,11
Cherry Glen Road,281,80 East,11
Alamo Drive,282,80 East,11
Davis Street,283,80 East,11
Mason Street,284,80 East,11
Harbison Drive,285,80 East,11
505 North,286,80 East,11
Leisure Town Road,287,80 East,11
Weber Road,288,80 East,11
Midway Road,289,80 East,11
Dixon Avenue West,290,80 East,11
Pitt School Road,291,80 East,11
Currey Road,292,80 East,11
Pedrick Road,293,80 East,11
Kidwell Road,294,80 East,11
113 North,295,80 East,11
Old Davis Road,296,80 West,12
113 North,297,80 West,12
Kidwell Road,298,80 West,12
Pedrick Road,299,80 West,12
Currey Road,300,80 West,12
Pitt School Road,301,80 West,12
Dixon Avenue West,302,80 West,12
Midway Road,303,80 West,12
Meridian Road North,304,80 West,12
Leisure Town Road,305,80 West,12
505 North,306,80 West,12
Browns Valley Parkway,307,80 West,12
Mason Street,308,80 West,12
Davis Street,309,80 West,12
Alamo Drive,310,80 West,12
Cherry Glen Road,311,80 West,12
Lagoon Valley Road,312,80 West,12
North Texas Street,313,80 West,12
Waterman Boulevard,314,80 West,12
Travis Boulevard,315,80 West,12
Rockville Road,316,80 West,12
Abernathy Road,317,80 West,12
12 East,318,80 West,12
Suisun Valley Road,319,80 West,12
680 North,320,80 West,12
680 South,321,80 West,12
Red Top Road,322,80 West,12
American Canyon Road,323,80 West,12
Marine World Parkway,324,80 West,12
Columbus Parkway,325,80 West,12
37 East-80 West Ramp,326,80 West,12
Redwood Parkway,327,80 West,12
Tennessee Street,328,80 West,12
Springs Road,329,80 West,12
Georgia Street,330,80 West,12
780 West,331,80 West,12
780 East,332,80 West,12
Magazine Street,333,80 West,12
Sonoma Boulevard,334,80 West,12
Carquinez Bridge,335,80 West,12
San Pablo Avenue,336,80 West,12
Cummings Skyway,337,80 West,12
Willow Avenue,338,80 West,12
4 East,339,80 West,12
Pinole Valley Road,340,80 West,12
Appian Way,341,80 West,12
Richmond Parkway,342,80 West,12
Hilltop Drive,343,80 West,12
El Portal Drive,344,80 West,12
San Pablo Dam Road,345,80 West,12
Mcbryde Avenue,346,80 West,12
Solano Avenue,347,80 West,12
Barrett Avenue,348,80 West,12
Macdonald Avenue,349,80 West,12
Cutting Boulevard,350,80 West,12
Potrero Avenue,351,80 West,12
Carlson Boulevard,352,80 West,12
Central Avenue,353,80 West,12
Cleveland Avenue,354,80 West,12
Golden Gate Fields,355,80 West,12
Gilman Street,356,80 West,12
University Avenue,357,80 West,12
Ashby Avenue,358,80 West,12
13 North-80 West Ramp,359,80 West,12
Powell Street,360,80 West,12
580 East-Macarthur Maze,361,80 West,12
580 West,362,80 West,12
West Grand Avenue,363,80 West,12
880 North-80 West Ramp,364,80 West,12
Bay Bridge - Toll Plaza,365,80 West,12
Bay Bridge - Metering Lights,366,80 West,12
Bay Bridge - Cantilever Section,367,80 West,12
Treasure Island Road,368,80 West,12
Bay Bridge - West Span,369,80 West,12
Fremont Street,370,80 West,12
4th Street,371,80 West,12
7th Street,372,80 West,12
101 North,373,80 West,12
1 North,374,84 East,13
280 South,375,84 East,13
280 North,376,84 East,13
Alameda De Las Pulgas,377,84 East,13
El Camino Real,378,84 East,13
Middlefield Road,379,84 East,13
101 South,380,84 East,13
101 North,381,84 East,13
Willow Road,382,84 East,13
University Avenue,383,84 East,13
Dumbarton Bridge - Midspan,384,84 East,13
Dumbarton Bridge - Causeway,385,84 East,13
Thornton Avenue,386,84 East,13
Newark Boulevard,387,84 East,13
880 North,388,84 East,13
880 South,389,84 East,13
Blacow Road,390,84 East,13
Fremont Boulevard,391,84 East,13
Peralta Boulevard,392,84 East,13
Paseo Padre Parkway,393,84 East,13
Mowry Avenue,394,84 East,13
Mission Boulevard,395,84 East,13
Niles Canyon Road,396,84 East,13
Palomares Road,397,84 East,13
Kilkare Road,398,84 East,13
Pleasanton Sunol Road,399,84 East,13
680 South,400,84 East,13
680 North,401,84 East,13
Vallecitos Lane,402,84 East,13
Little Valley Road,403,84 East,13
Isabella Avenue,404,84 East,13
Vineyard Avenue,405,84 East,13
East Stanely Boulevard,406,84 East,13
Airway Boulevard,407,84 East,13
580 East,408,84 East,13
580 West,409,84 West,14
580 East,410,84 West,14
Airway Boulevard,411,84 West,14
East Stanely Boulevard,412,84 West,14
Vineyard Avenue,413,84 West,14
Isabella Avenue,414,84 West,14
Little Valley Road,415,84 West,14
Vallecitos Lane,416,84 West,14
680 North,417,84 West,14
680 South,418,84 West,14
Pleasanton Sunol Road,419,84 West,14
Kilkare Road,420,84 West,14
Palomares Road,421,84 West,14
Niles Canyon Road,422,84 West,14
Mission Boulevard,423,84 West,14
Mowry Avenue,424,84 West,14
Paseo Padre Parkway,425,84 West,14
Peralta Boulevard,426,84 West,14
Fremont Boulevard,427,84 West,14
Blacow Road,428,84 West,14
880 South,429,84 West,14
880 North,430,84 West,14
Ardenwood Boulevard,431,84 West,14
Thornton Avenue,432,84 West,14
Dumbarton Bridge - Toll Plaza,433,84 West,14
Dumbarton Bridge - Causeway,434,84 West,14
Dumbarton Bridge - Midspan,435,84 West,14
University Avenue,436,84 West,14
Willow Road,437,84 West,14
101 North,438,84 West,14
101 South,439,84 West,14
Middlefield Road,440,84 West,14
El Camino Real,441,84 West,14
Alameda De Las Pulgas,442,84 West,14
280 North,443,84 West,14
280 South,444,84 West,14
101 North,445,85 North,15
Bernal Road,446,85 North,15
Great Oaks Boulevard,447,85 North,15
Cottle Road,448,85 North,15
Blossom Hill Road,449,85 North,15
87 North,450,85 North,15
Santa Teresa Boulevard,451,85 North,15
Almaden Exressway,452,85 North,15
Camden Avenue,453,85 North,15
Union Avenue,454,85 North,15
South Bascom Avenue,455,85 North,15
17 North,456,85 North,15
17 South,457,85 North,15
South Winchester Boulevard,458,85 North,15
Saratoga Avenue,459,85 North,15
South De Anza Boulevard,460,85 North,15
Stevens Creek Boulevard,461,85 North,15
280 South,462,85 North,15
280 North,463,85 North,15
West Homestead Road,464,85 North,15
West Fremont Avenue,465,85 North,15
El Camino Real,466,85 North,15
237 East,467,85 North,15
237 West,468,85 North,15
West Evelyn Avenue,469,85 North,15
Central Exressway,470,85 North,15
Moffett Boulevard,471,85 North,15
101 South,472,85 South,16
Moffett Boulevard,473,85 South,16
Central Exressway,474,85 South,16
West Evelyn Avenue,475,85 South,16
237 West,476,85 South,16
237 East,477,85 South,16
El Camino Real,478,85 South,16
West Fremont Avenue,479,85 South,16
Homestead Road,480,85 South,16
280 North,481,85 South,16
280 South,482,85 South,16
Stevens Creek Boulevard,483,85 South,16
South De Anza Boulevard,484,85 South,16
Saratoga Avenue,485,85 South,16
South Winchester Boulevard,486,85 South,16
17 South,487,85 South,16
17 North,488,85 South,16
South Bascom Avenue,489,85 South,16
Union Avenue,490,85 South,16
Camden Avenue,491,85 South,16
Almaden Exressway,492,85 South,16
Santa Teresa Boulevard,493,85 South,16
87 North,494,85 South,16
Blossom Hill Road,495,85 South,16
Cottle Road,496,85 South,16
Great Oaks Boulevard,497,85 South,16
Bernal Road,498,85 South,16
1 South,499,92 East,17
1 North,500,92 East,17
Main Street,501,92 East,17
Skyline Boulevard,502,92 East,17
35 North,503,92 East,17
280 South,504,92 East,17
280 North,505,92 East,17
Ralston Avenue,506,92 East,17
De Anza Boulevard,507,92 East,17
West Hillsdale Boulevard,508,92 East,17
Alameda De Las Pulgas,509,92 East,17
South El Camino Real,510,92 East,17
South Delaware Street,511,92 East,17
101 South,512,92 East,17
101 North,513,92 East,17
Edgewater Boulevard,514,92 East,17
Foster City Boulevard,515,92 East,17
San Mateo Bridge - High Rise,516,92 East,17
San Mateo Bridge - Eastbound Causeway,517,92 East,17
Clawiter Road,518,92 East,17
Industrial Boulevard,519,92 East,17
Hesperian Boulevard,520,92 East,17
880 South,521,92 East,17
880 North,522,92 West,18
880 South,523,92 West,18
Hesperian Boulevard,524,92 West,18
Industrial Boulevard,525,92 West,18
Clawiter Road,526,92 West,18
San Mateo Bridge - Toll Plaza,527,92 West,18
San Mateo Bridge - Westbound Causeway,528,92 West,18
San Mateo Bridge - High Rise,529,92 West,18
Foster City Boulevard,530,92 West,18
Mariners Island Boulevard,531,92 West,18
101 North,532,92 West,18
101 South,533,92 West,18
South Delaware Street,534,92 West,18
South El Camino Real,535,92 West,18
Alameda De Las Pulgas,536,92 West,18
West Hillsdale Boulevard,537,92 West,18
De Anza Boulevard,538,92 West,18
Ralston Avenue,539,92 West,18
280 North,540,92 West,18
280 South,541,92 West,18
35 North,542,92 West,18
Skyline Boulevard,543,92 West,18
Main Street,544,92 West,18
1 North,545,92 West,18
San Benito County Line,546,101 North,19
25 North,547,101 North,19
Monterey Highway,548,101 North,19
Pacheco Pass Highway,549,101 North,19
Leavesley Road,550,101 North,19
Masten Avenue,551,101 North,19
East San Martin Avenue,552,101 North,19
Tennant Avenue,553,101 North,19
East Dunne Avenue,554,101 North,19
Cochrane Road,555,101 North,19
Coyote Creek Golf Drive,556,101 North,19
Metcalf Road,557,101 North,19
85 North,558,101 North,19
Bernal Road,559,101 North,19
Blossom Hill Road,560,101 North,19
Hellyer Avenue,561,101 North,19
Yerba Buena Road,562,101 North,19
East Capitol Exressway,563,101 North,19
Tully Road,564,101 North,19
Story Road,565,101 North,19
680 North,566,101 North,19
680 South,567,101 North,19
Alum Rock Avenue,568,101 North,19
Mckee Road,569,101 North,19
Berryessa Road,570,101 North,19
Oakland Road,571,101 North,19
880 North,572,101 North,19
880 South,573,101 North,19
Old Bayshore Highway,574,101 North,19
North 1st Street,575,101 North,19
East Brokaw Road,576,101 North,19
Guadalupe Parkway,577,101 North,19
De La Cruz Boulevard,578,101 North,19
Montague Exressway,579,101 North,19
Great America Parkway,580,101 North,19
North Lawrence Exressway,581,101 North,19
North Fair Oaks Avenue,582,101 North,19
North Mathilda Avenue,583,101 North,19
237 East,584,101 North,19
237 West,585,101 North,19
Ellis Street,586,101 North,19
Moffett Boulevard,587,101 North,19
85 North,588,101 North,19
North Shoreline Boulevard,589,101 North,19
North Rengstorff Avenue,590,101 North,19
San Antonio Avenue,591,101 North,19
Oregon Exressway,592,101 North,19
Embarcadero Road,593,101 North,19
University Avenue,594,101 North,19
Willow Road,595,101 North,19
Marsh Road,596,101 North,19
Woodside Road,597,101 North,19
Whipple Avenue,598,101 North,19
Redwood Shores Parkway,599,101 North,19
Holly Street,600,101 North,19
Ralston Avenue,601,101 North,19
East Hillsdale Boulevard,602,101 North,19
92 East,603,101 North,19
92 West,604,101 North,19
Kehoe Avenue,605,101 North,19
East 3rd Avenue,606,101 North,19
Dore Avenue,607,101 North,19
Peninsula Avenue,608,101 North,19
Anza Boulevard,609,101 North,19
Broadway,610,101 North,19
East Millbrae Avenue,611,101 North,19
Airport Exit,612,101 North,19
San Bruno Avenue East,613,101 North,19
380 East,614,101 North,19
380 West,615,101 North,19
South Airport Boulevard,616,101 North,19
Grand Avenue,617,101 North,19
Oyster Point Boulevard,618,101 North,19
Sierra Point Parkway,619,101 North,19
Beatty Road,620,101 North,19
Bay Shore Boulevard,621,101 North,19
Key Avenue,622,101 North,19
Silver Avenue,623,101 North,19
280 North,624,101 North,19
280 South,625,101 North,19
Industrial Street,626,101 North,19
280 North-101 North Ramp,627,101 North,19
Cesar Chavez Street,628,101 North,19
Mariposa Street,629,101 North,19
80 East,630,101 North,19
80 West,631,101 North,19
Mission Street Off Ramp,632,101 North,19
Market Street,633,101 North,19
Geary Boulevard,634,101 North,19
Lombard Street At Van Ness Avenue,635,101 North,19
Divisadero Street,636,101 North,19
1 South,637,101 North,19
Merchant Road,638,101 North,19
Golden Gate Bridge,639,101 North,19
Golden Gate Bridge - South Tower,640,101 North,19
Golden Gate Bridge - Midspan,641,101 North,19
Golden Gate Bridge - North Tower,642,101 North,19
Marin - San Francisco County Line,643,101 North,19
Golden Gate Vista Point,644,101 North,19
Sausalito Lateral Road,645,101 North,19
Spencer Avenue,646,101 North,19
Rodeo Avenue,647,101 North,19
Bridgeway,648,101 North,19
1 North,649,101 North,19
Seminary Drive,650,101 North,19
Tiburon Boulevard,651,101 North,19
Tamalpais Drive,652,101 North,19
Lucky Drive,653,101 North,19
Sir Francis Drake Boulevard,654,101 North,19
Bellam Boulevard,655,101 North,19
580 East,656,101 North,19
580 West,657,101 North,19
3rd Street,658,101 North,19
Lillian Lane,659,101 North,19
North San Pedro Road,660,101 North,19
Manuel T Freitas Parkway,661,101 North,19
Smith Ranch Road,662,101 North,19
Miller Creek Road,663,101 North,19
Alameda Del Prado,664,101 North,19
Ignacio Boulevard,665,101 North,19
37 East,666,101 North,19
South Novato Boulevard,667,101 North,19
37 West,668,101 North,19
Rowland Boulevard,669,101 North,19
De Long Avenue,670,101 North,19
Atherton Avenue,671,101 North,19
San Antonio Road,672,101 North,19
Kastania Road,673,101 North,19
Petaluma Boulevard South,674,101 North,19
Lakeville Highway,675,101 North,19
East Washington Street,676,101 North,19
Old Redwood Highway,677,101 North,19
West Railroad Avenue,678,101 North,19
West Sierra Avenue,679,101 North,19
Gravenstein Way,680,101 North,19
Rohnert Park Exressway,681,101 North,19
Wilfred Avenue,682,101 North,19
Santa Rosa Avenue,683,101 North,19
East Todd Road,684,101 North,19
Yolanda Avenue,685,101 North,19
Baker Avenue,686,101 North,19
12 East,687,101 North,19
12 West,688,101 North,19
3rd Street,689,101 North,19
College Avenue,690,101 North,19
Streeteele Lane,691,101 North,19
Bicentennial Way,692,101 North,19
Mendocino Avenue,693,101 North,19
Mark West Springs Road,694,101 North,19
Fulton Road,695,101 North,19
Airport Boulevard,696,101 North,19
Shiloh Road,697,101 North,19
Windsor River Road,698,101 North,19
Old Redwood Highway,699,101 North,19
Healdsburg Avenue,700,101 North,19
Mill Street,701,101 North,19
Dry Creek Road,702,101 North,19
Lytton Springs Road,703,101 North,19
Souverain Road,704,101 North,19
Geyserville Avenue,705,101 North,19
Canyon Road,706,101 North,19
Asti Post Office Road,707,101 North,19
Theresa Drive,708,101 North,19
South Cloverdale Boulevard,709,101 North,19
Citrus Fair Drive,710,101 North,19
North Cloverdale Boulevard,711,101 North,19
Mendocino County Line,712,101 South,20
North Cloverdale Boulevard,713,101 South,20
Citrus Fair Drive,714,101 South,20
South Cloverdale Boulevard,715,101 South,20
Theresa Drive,716,101 South,20
Asti Post Office Road,717,101 South,20
Canyon Road,718,101 South,20
Geyserville Avenue,719,101 South,20
Souverain Road,720,101 South,20
Lytton Springs Road,721,101 South,20
Dry Creek Road,722,101 South,20
Westside Road,723,101 South,20
Healdsburg Avenue,724,101 South,20
Old Redwood Highway,725,101 South,20
Windsor River Road,726,101 South,20
Shiloh Road,727,101 South,20
Airport Boulevard,728,101 South,20
Fulton Road,729,101 South,20
River Road,730,101 South,20
Mendocino Avenue,731,101 South,20
Bicentennial Way,732,101 South,20
Steele Lane,733,101 South,20
College Avenue,734,101 South,20
7th Street,735,101 South,20
12 West,736,101 South,20
12 East,737,101 South,20
Baker Avenue,738,101 South,20
Hearn Avenue,739,101 South,20
Todd Road,740,101 South,20
Santa Rosa Avenue,741,101 South,20
Wilfred Avenue,742,101 South,20
Rohnert Park Exressway West,743,101 South,20
Gravenstein Highway,744,101 South,20
West Sierra Avenue,745,101 South,20
West Railroad Avenue,746,101 South,20
Pepper Road,747,101 South,20
Petaluma Boulevard North,748,101 South,20
East Washington Street,749,101 South,20
Lakeville Street,750,101 South,20
Petaluma Boulevard South,751,101 South,20
San Antonio Road,752,101 South,20
San Marin Drive,753,101 South,20
De Long Avenue,754,101 South,20
Rowland Boulevard,755,101 South,20
37 East,756,101 South,20
South Novato Boulevard,757,101 South,20
37 West,758,101 South,20
Ignacio Boulevard,759,101 South,20
Alameda Del Prado,760,101 South,20
Miller Creek Road,761,101 South,20
Lucas Valley Road,762,101 South,20
Manuel T Freitas Parkway,763,101 South,20
North San Pedro Road,764,101 South,20
Lincoln Avenue,765,101 South,20
3rd Street,766,101 South,20
580 West,767,101 South,20
580 East,768,101 South,20
Bellam Boulevard,769,101 South,20
Sir Francis Drake Boulevard,770,101 South,20
Lucky Drive,771,101 South,20
Madera Boulevard,772,101 South,20
Tamalpais Drive,773,101 South,20
East Blithedale Avenue,774,101 South,20
Hamilton Drive,775,101 South,20
1 North,776,101 South,20
Donahue Street,777,101 South,20
Rodeo Avenue,778,101 South,20
Wolfback Ridge,779,101 South,20
Conzelman Road,780,101 South,20
Marin - San Francisco County Line,781,101 South,20
Golden Gate Bridge - North Tower,782,101 South,20
Golden Gate Bridge - Midspan,783,101 South,20
Golden Gate Bridge - South Tower,784,101 South,20
Golden Gate Bridge - Toll Plaza,785,101 South,20
Merchant Road,786,101 South,20
1 South,787,101 South,20
Divisadero Street,788,101 South,20
Lombard Street At Van Ness Avenue,789,101 South,20
Geary Boulevard,790,101 South,20
Market Street,791,101 South,20
Howard Street,792,101 South,20
80 East,793,101 South,20
80 West,794,101 South,20
Cesar Chavez Street,795,101 South,20
Alemany Boulevard,796,101 South,20
280 South,797,101 South,20
280 North,798,101 South,20
Silver Avenue,799,101 South,20
Mansell Street,800,101 South,20
Bay Shore Boulevard,801,101 South,20
Beatty Road,802,101 South,20
Lagoon Way,803,101 South,20
Sister Cities Boulevard,804,101 South,20
Grand Avenue,805,101 South,20
South Airport Boulevard,806,101 South,20
380 West,807,101 South,20
380 East,808,101 South,20
San Bruno Avenue East,809,101 South,20
Airport Exit,810,101 South,20
East Millbrae Avenue,811,101 South,20
Broadway,812,101 South,20
East Poplar Avenue,813,101 South,20
East 3rd Avenue,814,101 South,20
East 4th Avenue,815,101 South,20
92 West,816,101 South,20
92 East,817,101 South,20
East Hillsdale Boulevard,818,101 South,20
Ralston Avenue,819,101 South,20
Harbor Boulevard,820,101 South,20
Holly Street,821,101 South,20
Brittan Avenue,822,101 South,20
Whipple Avenue,823,101 South,20
Woodside Road,824,101 South,20
Marsh Road,825,101 South,20
Willow Road,826,101 South,20
University Avenue,827,101 South,20
Embarcadero Road,828,101 South,20
Oregon Exressway,829,101 South,20
San Antonio Avenue,830,101 South,20
North Rengstorff Avenue,831,101 South,20
Old Middlefield Way,832,101 South,20
North Shoreline Boulevard,833,101 South,20
85 South,834,101 South,20
Moffett Boulevard,835,101 South,20
Ellis Street,836,101 South,20
237 West,837,101 South,20
237 East,838,101 South,20
North Mathilda Avenue,839,101 South,20
North Fair Oaks Avenue,840,101 South,20
North Lawrence Exressway,841,101 South,20
Bowers Avenue,842,101 South,20
San Tomas Exressway,843,101 South,20
De La Cruz Boulevard,844,101 South,20
Guadalupe Parkway,845,101 South,20
Airport Parkway,846,101 South,20
North 1st Street,847,101 South,20
North 4th Street,848,101 South,20
880 South,849,101 South,20
880 North,850,101 South,20
Oakland Road,851,101 South,20
Berryessa Road,852,101 South,20
Mckee Road,853,101 South,20
Alum Rock Avenue,854,101 South,20
280 North,855,101 South,20
280 South,856,101 South,20
Story Road,857,101 South,20
Tully Road,858,101 South,20
East Capitol Exressway,859,101 South,20
Yerba Buena Road,860,101 South,20
Hellyer Avenue,861,101 South,20
Blossom Hill Road,862,101 South,20
Bernal Road,863,101 South,20
85 South,864,101 South,20
Metcalf Road,865,101 South,20
Coyote Creek Golf Drive,866,101 South,20
Cochrane Road,867,101 South,20
East Dunne Avenue,868,101 South,20
Tennant Avenue,869,101 South,20
East San Martin Avenue,870,101 South,20
Masten Avenue,871,101 South,20
Leavesley Road,872,101 South,20
Pacheco Pass Highway,873,101 South,20
Monterey Highway,874,101 South,20
25 North,875,101 South,20
82 North,876,237 East,21
85 South,877,237 East,21
85 North,878,237 East,21
Moorpark Way,879,237 East,21
Central Exressway,880,237 East,21
East Middlefield Road,881,237 East,21
101 South,882,237 East,21
101 North,883,237 East,21
North Mathilda Avenue,884,237 East,21
North Fair Oaks Avenue,885,237 East,21
Lawrence Exressway,886,237 East,21
Great America Parkway,887,237 East,21
Lafayette Street,888,237 East,21
North 1st Street,889,237 East,21
Zanker Road,890,237 East,21
880 South,891,237 East,21
Mccarthy Boulevard,892,237 East,21
880 South-237 East Ramp,893,237 East,21
880 North,894,237 East,21
880 North-237 East Ramp,895,237 East,21
North Abel Street,896,237 East,21
North Milpitas Boulevard,897,237 East,21
680 South,898,237 East,21
680 North,899,237 West,22
680 South,900,237 West,22
North Milpitas Boulevard,901,237 West,22
North Abel Street,902,237 West,22
880 North,903,237 West,22
880 South,904,237 West,22
880 South-237 West Ramp,905,237 West,22
Mccarthy Boulevard,906,237 West,22
Zanker Road,907,237 West,22
North 1st Street,908,237 West,22
Lafayette Street,909,237 West,22
Great America Parkway,910,237 West,22
Lawrence Exressway,911,237 West,22
Java Drive,912,237 West,22
North Mathilda Avenue,913,237 West,22
101 South,914,237 West,22
101 North,915,237 West,22
East Middlefield Road,916,237 West,22
Central Exressway,917,237 West,22
Moorpark Way,918,237 West,22
85 North,919,237 West,22
85 South,920,237 West,22
580 West,921,238 North,23
580 East,922,238 North,23
East 14th Street,923,238 North,23
Hesperian Boulevard,924,238 North,23
880 North,925,238 North,23
880 South,926,238 South,24
880 North,927,238 South,24
Hesperian Boulevard,928,238 South,24
East 14th Street,929,238 South,24
580 West,930,238 South,24
680 North,931,242 North,25
Clayton Road,932,242 North,25
Concord Avenue,933,242 North,25
Grant Street,934,242 North,25
Olivera Road,935,242 North,25
4 West,936,242 South,26
4 East,937,242 South,26
Olivera Road,938,242 South,26
Solano Way,939,242 South,26
Concord Avenue,940,242 South,26
Clayton Road,941,242 South,26
680 South,942,280 North,27
101 South,943,280 North,27
Mclaughlin Avenue,944,280 North,27
South 11th Street,945,280 North,27
South 10th Street,946,280 North,27
South 7th Street,947,280 North,27
South 4th Street,948,280 North,27
82 North,949,280 North,27
Guadalupe Parkway,950,280 North,27
Bird Avenue,951,280 North,27
Race Street,952,280 North,27
Meridian Avenue,953,280 North,27
Leigh Avenue,954,280 North,27
South Bascom Avenue,955,280 North,27
880 North,956,280 North,27
17 South,957,280 North,27
South Winchester Boulevard,958,280 North,27
San Tomas Exressway,959,280 North,27
Saratoga Avenue,960,280 North,27
Lawrence Exressway,961,280 North,27
Stevens Creek Boulevard,962,280 North,27
North Wolfe Road,963,280 North,27
North De Anza Boulevard,964,280 North,27
85 North,965,280 North,27
85 South,966,280 North,27
Foothill Exressway,967,280 North,27
Magdalena Avenue,968,280 North,27
El Monte Road,969,280 North,27
Page Mill Road,970,280 North,27
Alpine Road,971,280 North,27
Sand Hill Road,972,280 North,27
84 West,973,280 North,27
84 East,974,280 North,27
Farm Hill Boulevard,975,280 North,27
Edgewood Road,976,280 North,27
92 East,977,280 North,27
92 West,978,280 North,27
Bunker Hill Drive,979,280 North,27
92 East-280 North Ramp,980,280 North,27
Crystal Springs Road,981,280 North,27
Golf Course Drive,982,280 North,27
Trousdale Drive,983,280 North,27
Millbrae Avenue,984,280 North,27
Larkspur Drive,985,280 North,27
Skyline Boulevard,986,280 North,27
San Bruno Avenue West,987,280 North,27
380 East,988,280 North,27
380 West,989,280 North,27
Sneath Lane,990,280 North,27
Avalon Drive,991,280 North,27
Westborough Boulevard,992,280 North,27
Hickey Boulevard,993,280 North,27
Collins Avenue,994,280 North,27
1 North,995,280 North,27
D Street,996,280 North,27
Washington Street,997,280 North,27
Junipero Serra Boulevard,998,280 North,27
280 North-1 North Split,999,280 North,27
John Daly Boulevard,1000,280 North,27
Geneva Avenue,1001,280 North,27
Ocean Avenue,1002,280 North,27
San Jose Avenue,1003,280 North,27
Cambridge Street,1004,280 North,27
Industrial Street,1005,280 North,27
280 North-101 North Ramp,1006,280 North,27
101 South,1007,280 North,27
Cesar Chavez Street,1008,280 North,27
25th Street,1009,280 North,27
Mariposa Street,1010,280 North,27
280 North-King Street-6th Street Ramp Merge,1011,280 South,28
Mariposa Street,1012,280 South,28
25th Street,1013,280 South,28
Cesar Chavez Street,1014,280 South,28
101 North,1015,280 South,28
101 South,1016,280 South,28
Alemany Boulevard,1017,280 South,28
Monterey Boulevard,1018,280 South,28
Ocean Avenue,1019,280 South,28
Geneva Avenue,1020,280 South,28
San Jose Avenue,1021,280 South,28
Brotherhood Way,1022,280 South,28
John Daly Boulevard,1023,280 South,28
280 South-1 South Join,1024,280 South,28
Washington Street,1025,280 South,28
1 South,1026,280 South,28
Serramonte Boulevard,1027,280 South,28
Hickey Boulevard,1028,280 South,28
Westborough Boulevard,1029,280 South,28
Avalon Drive,1030,280 South,28
Sneath Lane,1031,280 South,28
380 East,1032,280 South,28
380 West,1033,280 South,28
San Bruno Avenue West,1034,280 South,28
Crystal Springs Road,1035,280 South,28
Skyline Boulevard,1036,280 South,28
Larkspur Drive,1037,280 South,28
Hillcrest Boulevard,1038,280 South,28
Trousdale Drive,1039,280 South,28
Golf Course Drive,1040,280 South,28
280 South-92 West Ramp,1041,280 South,28
Bunker Hill Drive,1042,280 South,28
92 West,1043,280 South,28
92 East,1044,280 South,28
Edgewood Road,1045,280 South,28
Canada Road,1046,280 South,28
Farm Hill Boulevard,1047,280 South,28
84 East,1048,280 South,28
84 West,1049,280 South,28
Sand Hill Road,1050,280 South,28
Alpine Road,1051,280 South,28
Page Mill Road,1052,280 South,28
El Monte Road,1053,280 South,28
Magdalena Avenue,1054,280 South,28
Foothill Exressway,1055,280 South,28
85 South,1056,280 South,28
85 North,1057,280 South,28
North De Anza Boulevard,1058,280 South,28
North Wolfe Road,1059,280 South,28
Stevens Creek Boulevard,1060,280 South,28
Lawrence Exressway,1061,280 South,28
Saratoga Avenue,1062,280 South,28
San Tomas Exressway,1063,280 South,28
South Winchester Boulevard,1064,280 South,28
17 South,1065,280 South,28
17 North,1066,280 South,28
South Bascom Avenue,1067,280 South,28
Meridian Avenue,1068,280 South,28
Southwest Exressway,1069,280 South,28
Bird Avenue,1070,280 South,28
Guadalupe Parkway,1071,280 South,28
82 North,1072,280 South,28
South 6th Street,1073,280 South,28
South 7th Street,1074,280 South,28
South 10th Street,1075,280 South,28
South 11th Street,1076,280 South,28
Mclaughlin Avenue,1077,280 South,28
101 South,1078,280 South,28
280 North-South-380 East Ramp Merge,1079,380 East,29
El Camino Real,1080,380 East,29
101 South,1081,380 East,29
101 North,1082,380 East,29
South Airport Boulevard,1083,380 West,30
101 North,1084,380 West,30
101 South,1085,380 West,30
El Camino Real,1086,380 West,30
101 South,1087,580 East,31
101 North,1088,580 East,31
Bellam Boulevard,1089,580 East,31
Sir Francis Drake Boulevard,1090,580 East,31
Main Street,1091,580 East,31
Richmond San Rafael Bridge,1092,580 East,31
Western Drive,1093,580 East,31
Castro Street,1094,580 East,31
Garrard Boulevard,1095,580 East,31
Harbour Way South,1096,580 East,31
Marina Bay Parkway,1097,580 East,31
Erlandson Street,1098,580 East,31
Bayview Avenue,1099,580 East,31
Central Avenue,1100,580 East,31
Golden Gate Fields,1101,580 East,31
Gilman Street,1102,580 East,31
University Avenue,1103,580 East,31
Ashby Avenue,1104,580 East,31
13 North-80 West Ramp,1105,580 East,31
Powell Street,1106,580 East,31
80 West-Macarthur Maze,1107,580 East,31
880 South,1108,580 East,31
80 East,1109,580 East,31
West Macarthur Boulevard,1110,580 East,31
24 East,1111,580 East,31
980 West,1112,580 East,31
980 East,1113,580 East,31
24 West,1114,580 East,31
Oakland Avenue,1115,580 East,31
Grand Avenue,1116,580 East,31
Park Boulevard,1117,580 East,31
Fruitvale Avenue,1118,580 East,31
35th Avenue,1119,580 East,31
High Street,1120,580 East,31
Macarthur Boulevard-Calaveras Avenue,1121,580 East,31
13 North,1122,580 East,31
13 South,1123,580 East,31
Edwards Avenue,1124,580 East,31
Keller Avenue,1125,580 East,31
98th Avenue,1126,580 East,31
106th Avenue,1127,580 East,31
Macarthur Boulevard-Dutton Avenue,1128,580 East,31
Estudillo Avenue,1129,580 East,31
Fairmont Drive,1130,580 East,31
163rd Avenue,1131,580 East,31
238 North,1132,580 East,31
238 South,1133,580 East,31
Strobridge Avenue,1134,580 East,31
Redwood Road,1135,580 East,31
Center Street,1136,580 East,31
Grove Way,1137,580 East,31
Paloverde Road,1138,580 East,31
Foothill Road,1139,580 East,31
680 South,1140,580 East,31
680 North,1141,580 East,31
Hopyard Road,1142,580 East,31
Hacienda Drive,1143,580 East,31
Santa Rita Road,1144,580 East,31
El Charro Road,1145,580 East,31
Airway Boulevard,1146,580 East,31
Portola Avenue,1147,580 East,31
North Livermore Avenue,1148,580 East,31
1st Street,1149,580 East,31
South Vasco Road,1150,580 East,31
Greenville Road,1151,580 East,31
North Flynn Road,1152,580 East,31
Grant Line Road,1153,580 East,31
205 East,1154,580 East,31
San Joaquin County Line,1155,580 West,32
205 West,1156,580 West,32
Grant Line Road,1157,580 West,32
North Flynn Road,1158,580 West,32
Greenville Road,1159,580 West,32
North Vasco Road,1160,580 West,32
1st Street,1161,580 West,32
North Livermore Avenue,1162,580 West,32
Portola Avenue,1163,580 West,32
Airway Boulevard,1164,580 West,32
El Charro Road,1165,580 West,32
Santa Rita Road,1166,580 West,32
Hacienda Drive,1167,580 West,32
Hopyard Road,1168,580 West,32
680 North,1169,580 West,32
680 South,1170,580 West,32
Foothill Road,1171,580 West,32
Paloverde Road,1172,580 West,32
Crow Canyon Road,1173,580 West,32
Center Street,1174,580 West,32
Redwood Road,1175,580 West,32
Strobridge Avenue,1176,580 West,32
238 North,1177,580 West,32
238 South,1178,580 West,32
163rd Avenue,1179,580 West,32
Fairmont Drive,1180,580 West,32
Estudillo Avenue,1181,580 West,32
Macarthur Boulevard-Dutton Avenue,1182,580 West,32
106th Avenue,1183,580 West,32
98th Avenue,1184,580 West,32
Keller Avenue,1185,580 West,32
Edwards Avenue,1186,580 West,32
13 North,1187,580 West,32
13 South,1188,580 West,32
Macarthur Boulevard-Calaveras Avenue,1189,580 West,32
High Street,1190,580 West,32
35th Avenue,1191,580 West,32
Fruitvale Avenue,1192,580 West,32
Park Boulevard,1193,580 West,32
Grand Avenue,1194,580 West,32
Oakland Avenue,1195,580 West,32
980 West,1196,580 West,32
24 East,1197,580 West,32
980 East,1198,580 West,32
24 West,1199,580 West,32
80 West,1200,580 West,32
Powell Street,1201,580 West,32
80 East-Macarthur Maze,1202,580 West,32
Ashby Avenue,1203,580 West,32
13 North-80 East Ramp,1204,580 West,32
University Avenue,1205,580 West,32
Gilman Street,1206,580 West,32
Golden Gate Fields,1207,580 West,32
Central Avenue,1208,580 West,32
Bayview Avenue,1209,580 West,32
Erlandson Street,1210,580 West,32
South 23rd Street,1211,580 West,32
Harbour Way South,1212,580 West,32
Garrard Boulevard,1213,580 West,32
Castro Street,1214,580 West,32
Western Drive,1215,580 West,32
Richmond San Rafael Bridge - Toll Plaza,1216,580 West,32
Richmond San Rafael Bridge,1217,580 West,32
Main Street,1218,580 West,32
Sir Francis Drake Boulevard,1219,580 West,32
Bellam Boulevard,1220,580 West,32
101 North,1221,580 West,32
280 South,1222,680 North,33
East Capitol Exressway,1223,680 North,33
Alum Rock Avenue,1224,680 North,33
Mckee Road,1225,680 North,33
Berryessa Road,1226,680 North,33
Hostetter Road,1227,680 North,33
North Capitol Avenue,1228,680 North,33
Montague Exressway,1229,680 North,33
237 East,1230,680 North,33
237 West,1231,680 North,33
237 East-680 North Ramp,1232,680 North,33
Jacklin Road,1233,680 North,33
Scott Creek Road,1234,680 North,33
Mission Boulevard,1235,680 North,33
Durham Road,1236,680 North,33
Washington Boulevard,1237,680 North,33
Via San Gabriel,1238,680 North,33
Vargas Road,1239,680 North,33
Sheridan Road,1240,680 North,33
Andrade Road,1241,680 North,33
84 West,1242,680 North,33
84 East,1243,680 North,33
Vallecitos Road,1244,680 North,33
Pleasanton Sunol Road,1245,680 North,33
Castlewood Drive,1246,680 North,33
Bernal Avenue,1247,680 North,33
Stoneridge Drive,1248,680 North,33
580 East,1249,680 North,33
580 West,1250,680 North,33
Alcosta Boulevard,1251,680 North,33
Bollinger Canyon Road,1252,680 North,33
Crow Canyon Road,1253,680 North,33
Sycamore Valley Road,1254,680 North,33
Diablo Road,1255,680 North,33
El Cerro Boulevard,1256,680 North,33
Stone Valley Road,1257,680 North,33
Livorna Road,1258,680 North,33
Rudgear Road,1259,680 North,33
South Main Street,1260,680 North,33
Newell Avenue,1261,680 North,33
24 West,1262,680 North,33
24 East-680 North Ramp,1263,680 North,33
Ygnacio Valley Road,1264,680 North,33
North Main Street,1265,680 North,33
Treat Boulevard,1266,680 North,33
Oak Park Boulevard,1267,680 North,33
Boyd Road,1268,680 North,33
Monument Boulevard,1269,680 North,33
242 North,1270,680 North,33
Willow Pass Road,1271,680 North,33
Concord Avenue,1272,680 North,33
4 East,1273,680 North,33
4 West,1274,680 North,33
Arthur Road,1275,680 North,33
Waterfront Road,1276,680 North,33
Benicia Bridge - Toll Plaza,1277,680 North,33
Benicia Bridge,1278,680 North,33
780 West,1279,680 North,33
780 East,1280,680 North,33
Bayshore Road,1281,680 North,33
Industrial Way,1282,680 North,33
Lake Herman Road,1283,680 North,33
Parish Road,1284,680 North,33
Marshview Road,1285,680 North,33
Gold Hill Road,1286,680 North,33
Cordelia Road,1287,680 North,33
80 East,1288,680 North,33
80 West,1289,680 South,34
80 East,1290,680 South,34
Gold Hill Road,1291,680 South,34
Marshview Road,1292,680 South,34
Parish Road,1293,680 South,34
Lake Herman Road,1294,680 South,34
Industrial Way,1295,680 South,34
Bayshore Road,1296,680 South,34
780 West,1297,680 South,34
780 East,1298,680 South,34
Benicia Bridge,1299,680 South,34
Marina Vista Avenue,1300,680 South,34
Arthur Road,1301,680 South,34
4 West,1302,680 South,34
4 East,1303,680 South,34
Chilpancingo Parkway,1304,680 South,34
Willow Pass Road,1305,680 South,34
242 South,1306,680 South,34
Monument Boulevard,1307,680 South,34
Boyd Road,1308,680 South,34
Oak Park Boulevard,1309,680 South,34
Geary Road,1310,680 South,34
North Main Street,1311,680 South,34
24 West,1312,680 South,34
24 East-680 South Ramp,1313,680 South,34
Olympic Boulevard,1314,680 South,34
South Main Street,1315,680 South,34
Rudgear Road,1316,680 South,34
Livorna Road,1317,680 South,34
Stone Valley Road,1318,680 South,34
West El Pintado,1319,680 South,34
El Cerro Boulevard,1320,680 South,34
Diablo Road,1321,680 South,34
Sycamore Valley Road,1322,680 South,34
Crow Canyon Road,1323,680 South,34
Bollinger Canyon Road,1324,680 South,34
Alcosta Boulevard,1325,680 South,34
580 West,1326,680 South,34
580 East,1327,680 South,34
Stoneridge Drive,1328,680 South,34
Bernal Avenue,1329,680 South,34
Castlewood Drive,1330,680 South,34
Pleasanton Sunol Road,1331,680 South,34
Vallecitos Road,1332,680 South,34
84 East,1333,680 South,34
84 West,1334,680 South,34
Andrade Road,1335,680 South,34
Sheridan Road,1336,680 South,34
Vargas Road,1337,680 South,34
Via San Gabriel,1338,680 South,34
Washington Boulevard,1339,680 South,34
Auto Mall Parkway,1340,680 South,34
Mission Boulevard,1341,680 South,34
Scott Creek Road,1342,680 South,34
Jacklin Road,1343,680 South,34
237 West,1344,680 South,34
237 East,1345,680 South,34
237 East-680 South Ramp,1346,680 South,34
Montague Exressway,1347,680 South,34
North Capitol Avenue,1348,680 South,34
Hostetter Road,1349,680 South,34
Berryessa Road,1350,680 South,34
Mckee Road,1351,680 South,34
Alum Rock Avenue,1352,680 South,34
East Capitol Exressway,1353,680 South,34
Lemon Street,1354,780 East,35
80 West,1355,780 East,35
80 East,1356,780 East,35
Laurel Street,1357,780 East,35
Glen Cove Road,1358,780 East,35
Rose Drive,1359,780 East,35
Military West Street,1360,780 East,35
West 7th Street,1361,780 East,35
East 2nd Street,1362,780 East,35
East 5th Street,1363,780 East,35
680 North,1364,780 East,35
680 North,1365,780 West,36
East 5th Street,1366,780 West,36
East 2nd Street,1367,780 West,36
Southampton Road,1368,780 West,36
Military West Street,1369,780 West,36
Columbus Parkway,1370,780 West,36
Glen Cove Road,1371,780 West,36
Laurel Street,1372,780 West,36
80 East,1373,780 West,36
80 West,1374,780 West,36
280 North,1375,880 North,37
Stevens Creek Boulevard,1376,880 North,37
North Bascom Avenue,1377,880 North,37
82 North,1378,880 North,37
Coleman Avenue,1379,880 North,37
87 North,1380,880 North,37
North 1st Street,1381,880 North,37
101 North,1382,880 North,37
101 South,1383,880 North,37
Old Bayshore Highway,1384,880 North,37
East Brokaw Road,1385,880 North,37
Montague Exressway,1386,880 North,37
Great Mall Parkway,1387,880 North,37
237 East,1388,880 North,37
237 West,1389,880 North,37
Dixon Landing Road,1390,880 North,37
Mission Boulevard,1391,880 North,37
Fremont Boulevard,1392,880 North,37
Auto Mall Parkway,1393,880 North,37
Stevenson Boulevard,1394,880 North,37
Mowry Avenue,1395,880 North,37
84 East,1396,880 North,37
84 West,1397,880 North,37
Alvarado Boulevard,1398,880 North,37
Alvarado Niles Road,1399,880 North,37
Whipple Road,1400,880 North,37
Industrial Parkway West,1401,880 North,37
West Tennyson Road,1402,880 North,37
92 East,1403,880 North,37
92 West,1404,880 North,37
West Winton Avenue,1405,880 North,37
West A Street,1406,880 North,37
Hesperian Boulevard,1407,880 North,37
238 South,1408,880 North,37
238 North,1409,880 North,37
Washington Avenue,1410,880 North,37
Marina Boulevard,1411,880 North,37
Davis Street,1412,880 North,37
98th Avenue,1413,880 North,37
Hegenberger Road,1414,880 North,37
66th Avenue,1415,880 North,37
High Street,1416,880 North,37
29th Avenue,1417,880 North,37
23rd Avenue,1418,880 North,37
5th Avenue,1419,880 North,37
Oak Street,1420,880 North,37
Jackson Street,1421,880 North,37
Webster St Tube,1422,880 North,37
Broadway,1423,880 North,37
980 East,1424,880 North,37
Market Street,1425,880 North,37
Adeline Street,1426,880 North,37
Union Street,1427,880 North,37
7th Street,1428,880 North,37
80 West,1429,880 North,37
80 West,1430,880 South,38
580 East,1431,880 South,38
West Grand Avenue,1432,880 South,38
80 East,1433,880 South,38
7th Street,1434,880 South,38
Union Street,1435,880 South,38
Adeline Street,1436,880 South,38
Market Street,1437,880 South,38
980 West,1438,880 South,38
Broadway,1439,880 South,38
Webster St Tube,1440,880 South,38
Jackson Street,1441,880 South,38
Oak Street,1442,880 South,38
5th Avenue,1443,880 South,38
23rd Avenue,1444,880 South,38
29th Avenue,1445,880 South,38
High Street,1446,880 South,38
66th Avenue,1447,880 South,38
Hegenberger Road,1448,880 South,38
98th Avenue,1449,880 South,38
Davis Street,1450,880 South,38
Marina Boulevard,1451,880 South,38
238 North,1452,880 South,38
238 South,1453,880 South,38
Hesperian Boulevard,1454,880 South,38
West A Street,1455,880 South,38
West Winton Avenue,1456,880 South,38
92 West,1457,880 South,38
92 East,1458,880 South,38
West Tennyson Road,1459,880 South,38
Industrial Parkway West,1460,880 South,38
Whipple Road,1461,880 South,38
Alvarado Niles Road,1462,880 South,38
Alvarado Boulevard,1463,880 South,38
84 West,1464,880 South,38
84 East,1465,880 South,38
Mowry Avenue,1466,880 South,38
Stevenson Boulevard,1467,880 South,38
Auto Mall Parkway,1468,880 South,38
Fremont Boulevard,1469,880 South,38
Mission Boulevard,1470,880 South,38
Dixon Landing Road,1471,880 South,38
237 West,1472,880 South,38
237 East,1473,880 South,38
237 West-880 South Ramp,1474,880 South,38
Great Mall Parkway,1475,880 South,38
Montague Exressway,1476,880 South,38
East Brokaw Road,1477,880 South,38
Old Bayshore Highway,1478,880 South,38
101 North,1479,880 South,38
101 South,1480,880 South,38
North 1st Street,1481,880 South,38
87 North,1482,880 South,38
Coleman Avenue,1483,880 South,38
82 North,1484,880 South,38
North Bascom Avenue,1485,880 South,38
Stevens Creek Boulevard,1486,880 South,38
880 North,1487,980 East,39
11th Street,1488,980 East,39
14th Street,1489,980 East,39
Sycamore Street,1490,980 East,39
24 West,1491,980 West,40
980 West-580 East-West Ramp,1492,980 West,40
Sycamore Street,1493,980 West,40
14th Street,1494,980 West,40
11th Street,1495,980 West,40
17 South,1496,1 North,41
17 North,1497,1 North,41
Santa Cruz County Line,1498,1 North,41
84 East,1499,1 North,41
Higgins Canyon Road,1500,1 North,41
92 East,1501,1 North,41
Capistrano Road,1502,1 North,41
Carlos Street,1503,1 North,41
9th Street,1504,1 North,41
Linda Mar Boulevard,1505,1 North,41
Fassler Avenue,1506,1 North,41
Sharp Park Road,1507,1 North,41
Clarendon Road,1508,1 North,41
Paloma Avenue,1509,1 North,41
Milagra Drive,1510,1 North,41
Monterey Road,1511,1 North,41
Skyline Boulevard,1512,1 North,41
Serramonte Boulevard,1513,1 North,41
280 North,1514,1 North,41
D Street,1515,1 North,41
Washington Street,1516,1 North,41
Junipero Serra Boulevard,1517,1 North,41
280 North-1 North Split,1518,1 North,41
Alemany Boulevard,1519,1 North,41
Brotherhood Way,1520,1 North,41
Sloat Boulevard,1521,1 North,41
Taraval Street,1522,1 North,41
Fulton Street,1523,1 North,41
Geary Boulevard,1524,1 North,41
101 North,1525,1 North,41
101 South,1526,1 North,41
Merchant Road,1527,1 North,41
Golden Gate Bridge,1528,1 North,41
Golden Gate Bridge - South Tower,1529,1 North,41
Golden Gate Bridge - Midspan,1530,1 North,41
Golden Gate Bridge - North Tower,1531,1 North,41
Marin - San Francisco County Line,1532,1 North,41
Golden Gate Vista Point,1533,1 North,41
Sausalito Lateral Road,1534,1 North,41
Spencer Avenue,1535,1 North,41
Rodeo Avenue,1536,1 North,41
Bridgeway,1537,1 North,41
101 North,1538,1 North,41
Almonte Boulevard,1539,1 North,41
Panoramic Highway,1540,1 North,41
Sir Francis Drake Boulevard,1541,1 North,41
Point Reyes-Petaluma Road,1542,1 North,41
Marshall-Petaluma Road,1543,1 North,41
Valley Ford Road,1544,1 North,41
Valley Ford Freestone Road,1545,1 North,41
Bodega Highway,1546,1 North,41
Gravenstein Highway,1547,1 North,41
Stewarts Point Skaggs Springs Road,1548,1 North,41
Mendocino County Line,1549,1 South,42
Stewarts Point Skaggs Springs Road,1550,1 South,42
Gravenstein Highway,1551,1 South,42
Bodega Highway,1552,1 South,42
Valley Ford Freestone Road,1553,1 South,42
Valley Ford Road,1554,1 South,42
Marshall-Petaluma Road,1555,1 South,42
Point Reyes-Petaluma Road,1556,1 South,42
Sir Francis Drake Boulevard,1557,1 South,42
Panoramic Highway,1558,1 South,42
Almonte Boulevard,1559,1 South,42
101 North,1560,1 South,42
101 South,1561,1 South,42
Donahue Street,1562,1 South,42
Rodeo Avenue,1563,1 South,42
Spencer Avenue,1564,1 South,42
Conzelman Road,1565,1 South,42
Marin - San Francisco County Line,1566,1 South,42
Golden Gate Bridge - North Tower,1567,1 South,42
Golden Gate Bridge - Midspan,1568,1 South,42
Golden Gate Bridge - South Tower,1569,1 South,42
Golden Gate Bridge,1570,1 South,42
Merchant Road,1571,1 South,42
101 South,1572,1 South,42
Geary Boulevard,1573,1 South,42
Fulton Street,1574,1 South,42
Taraval Street,1575,1 South,42
Sloat Boulevard,1576,1 South,42
Brotherhood Way,1577,1 South,42
Alemany Boulevard,1578,1 South,42
280 South-1 South Join,1579,1 South,42
Washington Street,1580,1 South,42
280 South,1581,1 South,42
Serramonte Boulevard,1582,1 South,42
Skyline Boulevard,1583,1 South,42
Monterey Road,1584,1 South,42
Milagra Drive,1585,1 South,42
Paloma Avenue,1586,1 South,42
Clarendon Road,1587,1 South,42
Sharp Park Road,1588,1 South,42
Fassler Avenue,1589,1 South,42
Linda Mar Boulevard,1590,1 South,42
9th Street,1591,1 South,42
Carlos Street,1592,1 South,42
Capistrano Road,1593,1 South,42
92 East,1594,1 South,42
Higgins Canyon Road,1595,1 South,42
84 East,1596,1 South,42
Santa Cruz County Line,1597,1 South,42
17 North,1598,1 South,42
580 East,1599,205 East,43
San Joaquin County Line,1600,205 East,43
Mountain House Parkway,1601,205 East,43
West 11th Street,1602,205 East,43
West Grant Line Road,1603,205 East,43
North Tracy Boulevard,1604,205 East,43
North Mcarthur Drive,1605,205 East,43
5 North,1606,205 West,44
North Mcarthur Drive,1607,205 West,44
North Tracy Boulevard,1608,205 West,44
West Grant Line Road,1609,205 West,44
West 11th Street,1610,205 West,44
Mountain House Parkway,1611,205 West,44
San Joaquin County Line,1612,205 West,44
85 North,1613,87 North,45
85 South,1614,87 North,45
Santa Teresa Boulevard,1615,87 North,45
West Capitol Exressway,1616,87 North,45
Curtner Avenue,1617,87 North,45
Almaden Exressway,1618,87 North,45
Lelong Street,1619,87 North,45
280 South,1620,87 North,45
280 North,1621,87 North,45
Park Avenue,1622,87 North,45
West Julian Street,1623,87 North,45
Coleman Avenue,1624,87 North,45
West Taylor Street,1625,87 North,45
West Hedding Street,1626,87 North,45
880 North,1627,87 North,45
880 South,1628,87 North,45
Airport Parkway,1629,87 North,45
101 South,1630,87 North,45
101 North,1631,87 South,46
101 South,1632,87 South,46
Airport Parkway,1633,87 South,46
880 South,1634,87 South,46
880 North,1635,87 South,46
West Hedding Street,1636,87 South,46
West Taylor Street,1637,87 South,46
Coleman Avenue,1638,87 South,46
West Julian Street,1639,87 South,46
Park Avenue,1640,87 South,46
280 North,1641,87 South,46
280 South,1642,87 South,46
Lelong Street,1643,87 South,46
Almaden Exressway,1644,87 South,46
Curtner Avenue,1645,87 South,46
West Capitol Exressway,1646,87 South,46
Santa Teresa Boulevard,1647,87 South,46
85 South,1648,87 South,46
80 East,1649,505 North,47
80 West,1650,505 North,47
Vaca Valley Parkway,1651,505 North,47
Midway Road,1652,505 North,47
Allendale Road,1653,505 North,47
Putah Creek Road,1654,505 South,48
Allendale Road,1655,505 South,48
Midway Road,1656,505 South,48
Vaca Valley Parkway,1657,505 South,48
80 East,1658,505 South,48