San Ysidro Boulevard,513,5n,1
Dairy Mart Road,512,5n,1
Junction Route 905,511,5n,1
Coronado Avenue,510,5n,1
Palm Avenue,509,5n,1
Main Street,508,5n,1
Palomar Street,507,5n,1
L Street,506,5n,1
J Street,541,5n,1
H Street,542,5n,1
E Street,505,5n,1
Junction Route 54,504,5n,1
8th Street,503,5n,1
Division Street,502,5n,1
National Avenue,420,5n,1
Imperial Avenue,419,5n,1
94,418,5n,1
B Street,417,5n,1
Park Boulevard,543,5n,1
1st Avenue,416,5n,1
Hawthorn St, San Diego Airport,0,5n,1
Sassafras St (also India Street),1,5n,1
Pacific Highway,2,5n,1
Washington Street,3,5n,1
Old Town Avenue,4,5n,1
I-8 WEST, Beaches,5,5n,1
I-8 EAST El Centro (also Morena Blvd),6,5n,1
Sea World Drive, Tecolote Road,7,5n,1
Clairmont Dr, Mission Bay Dr,8,5n,1
Grand Ave, Garnet Ave,9,5n,1
Balboa Ave, C-274 EAST,10,5n,1
WEST La Jolla Pkwy (formerly Ardath Rd),11,5n,1
C-52 EAST,12,5n,1
Gilman Drive, La Jolla Colony Dr,13,5n,1
Nobel Dr,14,5n,1
La Jolla Village Dr,15,5n,1
Genesee Ave,16,5n,1
Sorrento Valley Rd,17,5n,1
I-805 NORTH, merge,371,5n,1
C-56 EAST,18,5n,1
Carmel Valley Road,19,5n,1
Del Mar Heights Road,20,5n,1
Via De La Valle (also S6),21,5n,1
Lomas Santa Fe Dr, Solana Beach (also S8),22,5n,1
Manchester Ave,23,5n,1
Birmingham Dr,24,5n,1
Santa Fe Dr, Encinitas,25,5n,1
Encinitas Blvd (also S9),26,5n,1
Leucadia Blvd,27,5n,1
La Costa Ave,28,5n,1
Poinsettia Lane, Aviara Pkwy,29,5n,1
Palomar Airport Rd (also Carlsbad Blvd, S12),30,5n,1
Tamarack Avenue,500,5n,1
Cannon Road,31,5n,1
Buena Vista Lagoon,544,5n,1
Cassidy Street,421,5n,1
Oceanside Blvd,422,5n,1
Mission Avenue,423,5n,1
76,424,5n,1
Harbor Drive,425,5n,1
Harbor Drive,429,5s,2
76,430,5s,2
 Mission Ave, Downtown (Downtown Oceanside),32,5s,2
 Oceanside Blvd,33,5s,2
 Cassidy Street,34,5s,2
 C-78, Escondido, Vista Way,35,5s,2
 Las Flores Drive,36,5s,2
 Carlsbad Village Dr, Downtown (Downtown Carlsbad, formerly Elm Ave),37,5s,2
 Tamarack Avenue,38,5s,2
 Cannon Rd,39,5s,2
 Palomar Airport Rd (also Carlsbad Blvd, S12),40,5s,2
 Poinsettia Lane, Aviara Pkwy,41,5s,2
 La Costa Ave,42,5s,2
 Leucadia Blvd,43,5s,2
 Encinitas Blvd, Encinitas (also S9),44,5s,2
 Santa Fe Drive,45,5s,2
 Birmingham Dr,46,5s,2
 Manchester Ave,47,5s,2
 Lomas Santa Fe Dr, Solana Beach (also S8),48,5s,2
 Via De La Valle, Del Mar (also S6),49,5s,2
 Del Mar Heights Road,50,5s,2
 Carmel Valley Rd, Junction C-56 EAST,51,5s,2
 I-805 SOUTH (exit left),52,5s,2
 Genesee Ave,53,5s,2
 La Jolla Village Dr,54,5s,2
Nobel Dr.,372,5s,2
 Gilman Dr, La Jolla Colony Dr,55,5s,2
 San Clemente Cyn, C-52 EAST,56,5s,2
 Balboa Ave, C-274, Garnet Ave (also Mission Bay Dr, Beaches),57,5s,2
 Clairemont Dr, East Mission Bay Dr,58,5s,2
 Sea World Drive, Tecolote Road,59,5s,2
 I-8 EAST, El Centro,60,5s,2
 C-209 SOUTH, Rosecrans St,61,5s,2
 Old Town Avenue,62,5s,2
Washington Avenue,431,5s,2
Hancock Street,426,5s,2
Kettner Blvd,427,5s,2
5th Avenue,428,5s,2
B Street,432,5s,2
ninety four,433,5s,2
Imperial Avenue,434,5s,2
29th Street,435,5s,2
National Avenue,514,5s,2
Division Street,515,5s,2
8th Street,516,5s,2
Junction Route 54,517,5s,2
E Street,518,5s,2
L Street,519,5s,2
Palomar Street,520,5s,2
Main Street,521,5s,2
Palm Avenue,522,5s,2
Coronado Avenue,523,5s,2
Junction Route 905,524,5s,2
Dairy Mart Road,525,5s,2
San Ysidro Boulevard,526,5s,2
(freeway begins at Nimitz Blvd & Sunset Cliffs Blvd),63,8e,3
 I-5 SOUTH,64,8e,3
East of Morena Blvd,393,8e,3
 Taylor St, Hotel Circle,65,8e,3
West of Presidio Parkway,392,8e,3
 Hotel Circle,66,8e,3
 SOUTH C-163, Downtown (Downtown San Diego),67,8e,3
 NORTH C-163, Escondido,68,8e,3
 Mission Center Rd, Auto Circle,69,8e,3
 Texas Street, Qualcomm Way (formerly Stadium Way),70,8e,3
 I-805,71,8e,3
 SOUTH C-15,72,8e,3
 Mission Gorge Rd, NORTH I-15, Fairmount Ave,73,8e,3
 Waring Road,74,8e,3
 College Ave,75,8e,3
 Lake Murray Blvd,76,8e,3
 70th Street,77,8e,3
 Fletcher Parkway,78,8e,3
 Spring St, Downtown (Downtown La Mesa),79,8e,3
 Jackson Drive, Grossmont Blvd,80,8e,3
 C-125,81,8e,3
 La Mesa Blvd, Grossmont Center Dr,82,8e,3
 Severin Dr, Fuerte Dr,83,8e,3
 El Cajon Blvd (also Chase Ave, Blvd Place),84,8e,3
 Main Street,85,8e,3
 Johnson Ave,86,8e,3
 C-67,87,8e,3
 Magnolia Ave, Civic Center,88,8e,3
 Mollison Avenue,89,8e,3
 2nd St (also C-54),90,8e,3
 Greenfield Dr, Crest,91,8e,3
 Los Coches Rd, Lakeside,92,8e,3
 Lake Jennings Park Road,93,8e,3
 Lake Jennings Park Road,94,8w,4
 Los Coches Road,95,8w,4
 Greenfield Dr,96,8w,4
 E Main St,97,8w,4
 2nd St (also C-54),98,8w,4
 Mollison Avenue,99,8w,4
 C-67 Magnolia Ave, Downtown (also Broadway, Fletcher Pkwy) (Downtown El Cajon),100,8w,4
 Main Street,101,8w,4
 Severin Dr, Fuerte Dr,102,8w,4
 SOUTH C-125 NORTH, to C-94 (SOUTH C-125 to C-94),103,8w,4
 Grossmont Center Dr, La Mesa Blvd,104,8w,4
 Jackson Dr,105,8w,4
 El Cajon Blvd,106,8w,4
East of Severin Drive,394,8w,4
 Fletcher Parkway, Baltimore Dr,107,8w,4
 70th St, Lake Murray Blvd,108,8w,4
 College Ave,109,8w,4
 Waring Rd,110,8w,4
 Mission Gorge Rd, Fairmount Ave,111,8w,4
 I-15 NORTH, Riverside,112,8w,4
 C-15 SOUTH,113,8w,4
 Los Angeles, NORTH I-805,114,8w,4
 SOUTH I-805, National City, Chula Vista,115,8w,4
 Texas St, Qualcomm Way (formerly Stadium Way),116,8w,4
 Mission Center Rd, Auto Circle,117,8w,4
 Hotel Circle, C-163 NORTH,118,8w,4
West of Hotel Circle,395,8w,4
 SOUTH C-163, Downtown,119,8w,4
 Taylor St, Hotel Circle,120,8w,4
 Morena Blvd,121,8w,4
 C-209, SOUTH I-5, Rosecrans St,122,8w,4
 NORTH I-5, Los Angeles,123,8w,4
 West Mission Bay Dr, Sports Arena Blvd,124,8w,4
Nimitz Blvd, Sunset Cliffs Blvd (freeway ends),125,8w,4
University Ave, City Heights Transit Plaza,126,15n,5
El Cajon Blvd,127,15n,5
Adams Ave,128,15n,5
Junction I-8, Camino Del Rio South,129,15n,5
Friars Road East,130,15n,5
Friars Rd West, Stadium,131,15n,5
Aero Drive,132,15n,5
Balboa Ave, C-274, Tierrasanta Blvd,133,15n,5
52 Connector,396,15n,5
Clairemont Mesa Blvd,134,15n,5
Junction C-52, 163 Connector,135,15n,5
(exit left) (Carpool Lanes),136,15n,5
Miramar Way (also MCAS Miramar),137,15n,5
South of Miramar Road,398,15n,5
Pomerado Rd, Miramar Rd (also Alliant International University),138,15n,5
Carroll Canyon Road,139,15n,5
Mira Mesa Blvd (also Lake Miramar),140,15n,5
Mercy Rd, Scripps Poway Pkwy,141,15n,5
Rancho Peñasquitos Blvd, Poway Road,142,15n,5
Carpool Lane at 56,397,15n,5
Ted Williams Pkwy, Jct C-56 WEST,143,15n,5
Carmel Mountain Road,144,15n,5
Camino Del Norte,145,15n,5
Bernardo Center Drive,146,15n,5
Rancho Bernardo Road,147,15n,5
West Bernardo Dr, Pomerado Rd (also Highland Valley Road, S5) ,148,15n,5
Via Rancho Parkway,149,15n,5
Centre City Parkway,150,15n,5
Felicita Road (also Citracado Pkwy),151,15n,5
9th Avenue, Auto Park Way,152,15n,5
Valley Parkway, Downtown (also S6) (Downtown Escondido),153,15n,5
El Norte Parkway,540,15n,5
 West Bernardo Dr, Pomerado Rd (also Highland Valley Road, S5),160,15s,6
 El Norte Parkway,154,15s,6
 Oceanside, Ramona, C-78,155,15s,6
 Valley Parkway, Downtown (also S6) (Downtown Escondido),156,15s,6
 9th Avenue, Auto Park Way,157,15s,6
 Felicita Road (also Citracado Pkwy),158,15s,6
 Via Rancho Parkway,159,15s,6
 Rancho Bernardo Road,161,15s,6
 Bernardo Center Drive,162,15s,6
 Camino Del Norte,163,15s,6
 Carmel Mountain Road,164,15s,6
 Ted Williams Pkwy, Jct C-56 WEST,165,15s,6
(Carpool Lanes),166,15s,6
 Poway Road, Rancho Peñasquitos Blvd,167,15s,6
 Scripps Poway Pkwy, Mercy Road,168,15s,6
 Mira Mesa Blvd (also Lake Miramar),169,15s,6
North of Carroll Canyon Road,399,15s,6
 Carroll Canyon Road,170,15s,6
 Pomerado Rd, Miramar Rd (also Alliant International University),171,15s,6
 Miramar Way (also MCAS Miramar),172,15s,6
 SOUTH C-163,173,15s,6
163 South Bound,400,15s,6
 Junction C-52, Clairemont Mesa Bl,174,15s,6
 Balboa Ave, C-274, Tierrasanta Blvd,175,15s,6
 Aero Drive,176,15s,6
 Friars Road, Stadium,177,15s,6
 Beaches, WEST I-8, Camino Del Rio S,178,15s,6
 EAST I-8, El Centro,179,15s,6
 Adams Ave,180,15s,6
 El Cajon Blvd,181,15s,6
 University Ave (also City Heights Transit Plaza),182,15s,6
Regents Road,530,52e,7
Genesee Avenue,529,52e,7
Junction Route 805,528,52e,7
Convoy Street,527,52e,7
163 Connector,391,52e,7
Santo Rd,183,52e,7
Mast Blvd,184,52e,7
C-125 SOUTH (exit left) (exit 14A, Mission Gorge Rd and C-52 to the right),185,52e,7
(freeway ends at Mission Gorge Road),186,52e,7
Mast Blvd ,187,52w,8
Santo Rd,188,52w,8
Junction I-15, Kearny Villa Rd,189,52w,8
Convoy Street,531,52w,8
Junction Route 805,532,52w,8
Genesee Avenue,533,52w,8
Regents Road,534,52w,8
(freeway begins on I-5),342,54e,9
Highland Ave, 4th Ave.,343,54e,9
North I-805 SOUTH,344,54e,9
Plaza Bonita Center Way, Reo Drive,190,54e,9
Woodman St,191,54e,9
Briarwood Rd,192,54e,9
(freeway ends on C-125 at Worthington St.),345,54e,9
(freeway begins on C-125 at Worthington St.),346,54w,10
Briarwood Rd,193,54w,10
Woodman St,194,54w,10
Plaza Bonita Center Way, Reo Drive,195,54w,10
SOUTH I-805 NORTH,347,54w,10
Highland Ave, 4th Ave.,348,54w,10
National City Blvd, Broadway,349,54w,10
NORTH I-5,350,54w,10
E Street,351,54w,10
(freeway ends I-5 SOUTH),352,54w,10
(freeway begins on northbound I-5),353,56e,11
Carmel Creek Road,196,56e,11
Carmel Country Road,197,56e,11
Carmel Valley Road,354,56e,11
Camino Del Sur,374,56e,11
Black Mountain Road,336,56e,11
Rancho Penasquitos,335,56e,11
(freeway ends at I-15),375,56e,11
(freeway begins at I-15),376,56w,12
Rancho Penasquitos,337,56w,12
Black Mountain Road,340,56w,12
Camino Del Sur,377,56w,12
Carmel Valley Road,378,56w,12
Carmel Country Road,339,56w,12
Carmel Creek Road,341,56w,12
El Camino Real, TO I-5 NORTH,356,56w,12
(freeway ends on southbound I-5),357,56w,12
I-5 SOUTH, San Diego (freeway begins on Vista Way at I-5),358,78e,13
 I-5 NORTH, Los Angeles,359,78e,13
Jefferson St,200,78e,13
El Camino Real (also S11),201,78e,13
College Blvd (MiraCosta College),202,78e,13
College Boulevard,401,78e,13
Plaza Dr,203,78e,13
Emerald Dr,204,78e,13
Melrose Dr (also S13) (Vista Court Complex),205,78e,13
Vista Village Dr,206,78e,13
Escondido Ave,207,78e,13
Mar Vista Dr,208,78e,13
Sycamore Ave,209,78e,13
Rancho Santa Fe Rd (also S10) (Palomar College, Lake San Marcos),210,78e,13
Las Posas Road and Grand Avenue,402,78e,13
San Marcos Blvd (also S12),211,78e,13
Twin Oaks Valley Rd,212,78e,13
Barham Dr, Woodland,213,78e,13
Nordahl Rd,214,78e,13
I-15 SOUTH, San Diego,360,78e,13
I-15 NORTH, Riverside,361,78e,13
Centre City Pkwy,365,78e,13
(freeway ends on Lincoln Pkwy at Broadway,366,78e,13
(freeway begins on Lincoln Pkwy at Broadway),367,78w,14
San Diego, Riverside, I-15,362,78w,14
Nordahl Rd,215,78w,14
Woodland Pkwy, Barham Dr,216,78w,14
East of College Avenue,403,78w,14
East of Emerald Drive,404,78w,14
Twin Oaks Valley Rd,217,78w,14
San Marcos Blvd (also S12),218,78w,14
Rancho Santa Fe Rd (also S10),219,78w,14
Sycamore Ave,220,78w,14
Mar Vista Dr,221,78w,14
Escondido Ave,222,78w,14
Las Posas Road,405,78w,14
Bypass at Rancho Santa Fe,406,78w,14
Vista Village Dr,223,78w,14
Emerald Dr,224,78w,14
College Blvd,225,78w,14
West of Nordhal Road,407,78w,14
El Camino Real (also S11),226,78w,14
Jefferson St,227,78w,14
I-5 NORTH, Los Angeles,363,78w,14
I-5 SOUTH, San Diego,364,78w,14
25th Street,436,94e,15
28th Street,228,94e,15
SOUTH C-15,229,94e,15
Home Ave,230,94e,15
NORTH C-15, TO I-805 NORTH (exit left),231,94e,15
SOUTH I-805,232,94e,15
Euclid Ave,233,94e,15
Kelton Road,234,94e,15
Federal Blvd,235,94e,15
Broadway, College Ave,236,94e,15
Massachusetts Avenue,237,94e,15
Lemon Grove Avenue,238,94e,15
West of Lemon Grove,408,94e,15
125 Connector,390,94e,15
Spring Street,437,94w,16
Lemon Grove Avenue,239,94w,16
Massachusetts Avenue,240,94w,16
College Ave,241,94w,16
College Grove Way,242,94w,16
Federal Blvd, Kelton Road,243,94w,16
Euclid Ave,244,94w,16
SOUTH I-805 NORTH (also Home Ave),245,94w,16
SOUTH C-15 (exit left),246,94w,16
30th Street,247,94w,16
28th Street,248,94w,16
25th Street,249,94w,16
(freeway begins on C-54 at Worthington St, Sweetwater Rd),379,125n,17
Jamacha Blvd, Paradise Valley Rd,380,125n,17
Jamacha Road,381,125n,17
C-94 WEST, C-94 EAST (also La Mesa, Spring St),382,125n,17
Lemon Ave,383,125n,17
Grossmont Bl,250,125n,17
EAST I-8,251,125n,17
WEST I-8,252,125n,17
Fletcher Pkwy (also Amaya Dr),253,125n,17
Navajo Road,254,125n,17
Grossmont College Dr (also Grossmont College),255,125n,17
WEST C-52,256,125n,17
(freeway ends on Mission Gorge Rd),384,125n,17
(freeway begins at Mission Gorge Road),385,125s,18
Grossmont College Dr (also Grossmont College),257,125s,18
Navajo Rd,258,125s,18
Fletcher Pkwy,259,125s,18
EAST I-8 WEST,260,125s,18
Grossmont Bl,261,125s,18
C-94 EAST, Spring St,262,125s,18
C-94 WEST (C-125 SOUTH right, C-94 WEST straight ahead),386,125s,18
Tyler Street,409,125s,18
Jamacha Road,387,125s,18
Jamacha Blvd, Paradise Valley Rd,388,125s,18
(freeway ends on C-54 at Worthington St, Sweetwater Rd),389,125s,18
Robinson Avenue,263,163n,19
Washington Street EAST,264,163n,19
EAST I-8, El Centro,265,163n,19
Friars Rd,266,163n,19
I-8 WEST,267,163n,19
Genessee Ave East,268,163n,19
Genessee Ave West,269,163n,19
Mesa College Dr, Kearny Villa Rd,270,163n,19
Los Angeles, NORTH 805,271,163n,19
WEST C-274 EAST, Balboa Ave,272,163n,19
Clairemont Mesa Blvd WEST EAST (also Kearny Villa Road),273,163n,19
C-52 EAST,274,163n,19
WEST C-52,275,163n,19
Kearny Villa Road,276,163n,19
(Carpool Lanes),277,163n,19
(freeway ends at I-15),278,163n,19
(freeway begins at I-15),279,163s,20
Kearny Villa Rd,280,163s,20
WEST C-52,281,163s,20
Clairemont Mesa Boulevard,282,163s,20
Balboa Ave, C-274,283,163s,20
I-805 SOUTH,284,163s,20
Genessee Ave,285,163s,20
North of I 805,410,163s,20
Friars Rd,286,163s,20
WEST I-8,287,163s,20
Hotel Circle,288,163s,20
EAST I-8, El Centro,289,163s,20
University Ave,290,163s,20
Washington St WEST,291,163s,20
Washington St EAST,292,163s,20
Junction Route 905,536,805n,21
Palm Avenue,535,805n,21
Main Street,411,805n,21
South of Orange Avenue and Olympic Pkwy,412,805n,21
North of Orange Avenue and Olympic Pkwy,413,805n,21
Plaza Blvd,293,805n,21
43rd Street,294,805n,21
47th Street,295,805n,21
Imperial Ave,296,805n,21
Market St,297,805n,21
WEST C-94 EAST, M L King Jr Fwy,298,805n,21
Home Ave,299,805n,21
Junction NORTH C-15,300,805n,21
University Avenue,301,805n,21
El Cajon Blvd,302,805n,21
WEST Beaches I-8 EAST El Centro,303,805n,21
Murray Ridge Rd, Phyllis Place,304,805n,21
North of Mesa College Drive,414,805n,21
Mesa College Dr, Kearny Villa Rd,305,805n,21
Escondido, NORTH C-163,306,805n,21
Balboa Ave, C-274,307,805n,21
Clairemont Mesa Boulevard,308,805n,21
Junction C-52,309,805n,21
Governor Drive,310,805n,21
Nobel Drive,311,805n,21
La Jolla Village Dr, Miramar Road,312,805n,21
Mira Mesa Blvd, Vista Sorrento Pkwy,313,805n,21
Sorrento Valley Road,368,805n,21
(freeway ends at I-5 merge),369,805n,21
(freeway begins at exit from South Bound I-5),370,805s,22
Mira Mesa Blvd, Sorrento Valley Rd,314,805s,22
Miramar Road, La Jolla Village Dr,315,805s,22
Nobel Dr.,373,805s,22
Governor Drive,316,805s,22
Junction C-52,317,805s,22
Clairemont Mesa Blvd,318,805s,22
Balboa Ave, C-274,319,805s,22
Downtown, SOUTH C-163 (Downtown San Diego),320,805s,22
Murray Ridge Rd, Phyllis Place,321,805s,22
Beaches, El Centro, I-8,322,805s,22
Adams Ave, Madison Ave,323,805s,22
El Cajon Blvd,324,805s,22
North Park Way, University Ave,325,805s,22
SOUTH C-15, To WEST C-94, M L King Jr Fwy,326,805s,22
Home Ave,327,805s,22
C-94 EAST, M L King Jr Fwy,328,805s,22
Market St,329,805s,22
Imperial Ave,330,805s,22
43rd St,331,805s,22
Palm Ave,332,805s,22
Plaza Blvd,333,805s,22
North of 163,415,805s,22
Main Street,438,805s,22
Palm Avenue,537,805s,22
Junction Route 905,538,805s,22